<svg width="40" height="40" viewBox="0 0 40 40" fill="none" xmlns="http://www.w3.org/2000/svg">
<path d="M39.4002 24.8399C36.7306 35.5532 25.8766 42.0736 15.1602 39.4C4.44381 36.7264 -2.07359 25.8778 0.600214 15.1635C3.27401 4.44933 14.1226 -2.07407 24.8366 0.599928C35.5506 3.27393 42.074 14.1231 39.4002 24.8399Z" fill="#F7931A"/>
<path d="M28.8202 17.1507C29.2178 14.4893 27.1914 13.0585 24.4202 12.1041L25.3202 8.49915L23.125 7.95235L22.2482 11.4625C21.6718 11.3189 21.0794 11.1825 20.4906 11.0489L21.3706 7.51555L19.1776 6.96875L18.2802 10.5723L13.8538 9.47595L13.2698 11.8201C13.2698 11.8201 14.8982 12.1933 14.8638 12.2165C15.7526 12.4385 15.9138 13.0265 15.8866 13.4929L13.4238 23.3689C13.315 23.6389 13.0394 24.0437 12.4182 23.8889C12.4402 23.9209 10.823 23.4889 10.823 23.4889L9.7334 26.0047L14.1534 27.1207L13.245 30.7677L15.437 31.3145L16.337 27.7067C16.937 27.8691 17.517 28.0191 18.0854 28.1603L17.189 31.7513L19.3838 32.2981L20.2922 28.6581C24.0348 29.3661 26.8492 29.0805 28.0322 25.6981C28.9866 22.9731 27.9854 21.4011 26.0162 20.3755C27.4502 20.0435 28.5302 19.1007 28.8184 17.1521L28.8202 17.1507ZM23.8042 24.1825C23.1242 26.9075 18.5372 25.4349 17.0488 25.0649L18.254 20.2339C19.7416 20.6051 24.5118 21.3403 23.805 24.1821L23.8042 24.1825ZM24.485 17.1121C23.8662 19.5921 20.0468 18.3321 18.8072 18.0229L19.8984 13.6401C21.1384 13.9497 25.1286 14.5261 24.4834 17.1119" fill="white"/>
</svg>
